CBE R Workshop
…
You can think of variables and columns as synonymous in a data table.

Data transformation with dplyr

Now that weve checked our data for any loose ends, like NA values, lets get to manipulating the data. The dplyr package contains various functions that help you transform variables.

Here is a quick list of what the most common functions do: * filter() - subsets your data by certain values * select() - selects or deselects certain variables * arrange() - sorts your data in descending or ascending value * summarize() - calculates an output that is a single value * mutate() - creates new columns

Lets say were only interested in viewing the observations from February 21, 2021.

vaccine_data %>%
  filter(date == "2021-02-21")

## # A tibble: 65 x 14
##    date       location total_vaccinati~ total_distribut~ people_vaccinat~
##    <date>     <chr>               <dbl>            <dbl>            <dbl>
##  1 2021-02-21 Alabama            788613          1082100           567505
##  2 2021-02-21 Alaska             235141           299935           152349
##  3 2021-02-21 America~            18778            29450            10948
##  4 2021-02-21 Arizona           1469676          1688255          1087921
##  5 2021-02-21 Arkansas           528467           691525           367436
##  6 2021-02-21 Bureau ~            52266            49175            32591
##  7 2021-02-21 Califor~          7453468          9178020          5426591
##  8 2021-02-21 Colorado          1202161          1348800           817009
##  9 2021-02-21 Connect~           860534           984275           579380
## 10 2021-02-21 Delaware           180940           204200           133251
## # ... with 55 more rows, and 9 more variables:
## #   people_fully_vaccinated_per_hundred <dbl>,
## #   total_vaccinations_per_hundred <dbl>, people_fully_vaccinated <dbl>,
## #   people_vaccinated_per_hundred <dbl>, distributed_per_hundred <dbl>,
## #   daily_vaccinations_raw <dbl>, daily_vaccinations <dbl>,
## #   daily_vaccinations_per_million <dbl>, share_doses_used <dbl>

Now you can see there are only 65 observations that match this condition.

We only want the variable people_fully_vaccinated.

vaccine_data %>%
  select(people_fully_vaccinated)

## # A tibble: 2,688 x 1
##    people_fully_vaccinated
##                      <dbl>
##  1                    7270
##  2                    9245
##  3                      NA
##  4                   13488
##  5                      NA
##  6                      NA
##  7                      NA
##  8                   16346
##  9                   17956
## 10                   21345
## # ... with 2,678 more rows

What if we want all variables besides people_fully_vaccinated?

vaccine_data %>%
  select(-people_fully_vaccinated)

## # A tibble: 2,688 x 13
##    date       location total_vaccinati~ total_distribut~ people_vaccinat~
##    <date>     <chr>               <dbl>            <dbl>            <dbl>
##  1 2021-01-12 Alabama             78134           377025            70861
##  2 2021-01-13 Alabama             84040           378975            74792
##  3 2021-01-14 Alabama             92300           435350            80480
##  4 2021-01-15 Alabama            100567           444650            86956
##  5 2021-01-16 Alabama                NA               NA               NA
##  6 2021-01-17 Alabama                NA               NA               NA
##  7 2021-01-18 Alabama                NA               NA               NA
##  8 2021-01-19 Alabama            130795           444650           114319
##  9 2021-01-20 Alabama            139200           483275           121113
## 10 2021-01-21 Alabama            165919           493125           144429
## # ... with 2,678 more rows, and 8 more variables:
## #   people_fully_vaccinated_per_hundred <dbl>,
## #   total_vaccinations_per_hundred <dbl>, people_vaccinated_per_hundred <dbl>,
## #   distributed_per_hundred <dbl>, daily_vaccinations_raw <dbl>,
## #   daily_vaccinations <dbl>, daily_vaccinations_per_million <dbl>,
## #   share_doses_used <dbl>

Now lets see which state has the highest number of people_fully_vaccinated as of February 21, 2021.

vaccine_data %>%
  filter(date == "2021-02-21") %>%
  arrange(desc(people_fully_vaccinated))

## # A tibble: 65 x 14
##    date       location total_vaccinati~ total_distribut~ people_vaccinat~
##    <date>     <chr>               <dbl>            <dbl>            <dbl>
##  1 2021-02-21 United ~         63090634         75204965         43628092
##  2 2021-02-21 Califor~          7453468          9178020          5426591
##  3 2021-02-21 Florida           4387051          5120975          2877011
##  4 2021-02-21 Texas             4673868          5652800          3267255
##  5 2021-02-21 New Yor~          3621973          4171175          2369520
##  6 2021-02-21 North C~          2068505          2363200          1373952
##  7 2021-02-21 Ohio              2140688          2518775          1486509
##  8 2021-02-21 Michigan          1933648          2279240          1267083
##  9 2021-02-21 Pennsyl~          2306828          2989725          1667727
## 10 2021-02-21 Georgia           1850856          2292085          1202374
## # ... with 55 more rows, and 9 more variables:
## #   people_fully_vaccinated_per_hundred <dbl>,
## #   total_vaccinations_per_hundred <dbl>, people_fully_vaccinated <dbl>,
## #   people_vaccinated_per_hundred <dbl>, distributed_per_hundred <dbl>,
## #   daily_vaccinations_raw <dbl>, daily_vaccinations <dbl>,
## #   daily_vaccinations_per_million <dbl>, share_doses_used <dbl>
…
## # A tibble: 1 x 1
##   `mean(people_fully_vaccinated)`
##                             <dbl>
## 1                         313989.

However, mutate() is useful for calculating a unique value per observation. Lets say we want to find the rate of vaccinations and distributions:

vaccine_data %>%
  filter(!is.na(people_vaccinated),
         !is.na(total_distributed)) %>%
  mutate(newvariable = people_vaccinated / total_distributed)

## # A tibble: 2,359 x 15
##    date       location total_vaccinati~ total_distribut~ people_vaccinat~
##    <date>     <chr>               <dbl>            <dbl>            <dbl>
##  1 2021-01-12 Alabama             78134           377025            70861
##  2 2021-01-13 Alabama             84040           378975            74792
##  3 2021-01-14 Alabama             92300           435350            80480
##  4 2021-01-15 Alabama            100567           444650            86956
##  5 2021-01-19 Alabama            130795           444650           114319
##  6 2021-01-20 Alabama            139200           483275           121113
##  7 2021-01-21 Alabama            165919           493125           144429
##  8 2021-01-22 Alabama            199314           519525           174317
##  9 2021-01-23 Alabama            221540           521225           193955
## 10 2021-01-24 Alabama            243737           521225           213833
## # ... with 2,349 more rows, and 10 more variables:
## #   people_fully_vaccinated_per_hundred <dbl>,
## #   total_vaccinations_per_hundred <dbl>, people_fully_vaccinated <dbl>,
## #   people_vaccinated_per_hundred <dbl>, distributed_per_hundred <dbl>,
## #   daily_vaccinations_raw <dbl>, daily_vaccinations <dbl>,
## #   daily_vaccinations_per_million <dbl>, share_doses_used <dbl>,
## #   newvariable <dbl>

Theres so much more you can do with dplyr. Another useful function is group_by(), which creates groups based on a certain variable. For example, finding the mean number of people fully vaccinated isnt very helpful when your data contains observations from New York in December 2020 and Oregon in February 2021.

group_by() essentially sidesteps this problem of comparison by calculating statistics within a given group.

vaccine_data %>%
  select(date, people_fully_vaccinated, location) %>%
  filter(!is.na(people_fully_vaccinated),
         location != "United States") %>%
  group_by(date) %>%
  summarize(mean(people_fully_vaccinated))

## `summarise()` ungrouping output (override with `.groups` argument)

## # A tibble: 36 x 2
##    date       `mean(people_fully_vaccinated)`
##    <date>                               <dbl>
##  1 2021-01-12                          14531.
##  2 2021-01-13                          18857.
##  3 2021-01-15                          25976.
##  4 2021-01-19                          32631.
##  5 2021-01-20                          34862.
##  6 2021-01-21                          38628.
##  7 2021-01-22                          44467.
##  8 2021-01-23                          48837.
##  9 2021-01-24                          51884.
## 10 2021-01-25                          53974.
## # ... with 26 more rows
…
